\select@language {brazil}
\contentsline {section}{\numberline {1}Introdu\IeC {\c c}\IeC {\~a}o}{3}{section.1}
\contentsline {section}{\numberline {2}Metodologia}{3}{section.2}
\contentsline {subsection}{\numberline {2.1}}{3}{subsection.2.1}
\contentsline {subsubsection}{\numberline {2.1.1}}{3}{subsubsection.2.1.1}
\contentsline {paragraph}{\numberline {2.1.1.1}}{3}{paragraph.2.1.1.1}
\contentsline {subparagraph}{}{3}{section*.2}
\contentsline {section}{\numberline {3}Resultados Computacionais}{4}{section.3}
\contentsline {section}{\numberline {4}Refer\IeC {\^e}ncias Bibliogr\IeC {\'a}ficas}{4}{section.4}
